<?xml version="1.0" encoding="UTF-8"?>
<svg width="84px" height="84px" viewBox="0 0 84 84" version="1.1" xmlns="http://www.w3.org/2000/svg" xmlns:xlink="http://www.w3.org/1999/xlink">
    <!-- Generator: Sketch 51.1 (57501) - http://www.bohemiancoding.com/sketch -->
    <title>icono 3</title>
    <desc>Created with Sketch.</desc>
    <defs>
        <polygon id="path-1" points="0 0 29 0 29 44 0 44"></polygon>
    </defs>
    <g id="Screens" stroke="none" stroke-width="1" fill="none" fill-rule="evenodd">
        <g id="Desktop-HD-Quienes-somos" transform="translate(-887.000000, -1345.000000)">
            <g id="Por-qué-elegirnos?" transform="translate(0.000000, 1233.000000)">
                <g id="Por-que-1">
                    <g id="3" transform="translate(855.000000, 114.000000)">
                        <g id="icono-3" transform="translate(34.000000, 0.000000)">
                            <g id="3" stroke="#D2CBB8" stroke-width="3">
                                <g id="Whatsapp">
                                    <g id="Telefono-icon">
                                        <circle id="Oval" cx="40" cy="40" r="40"></circle>
                                    </g>
                                </g>
                            </g>
                            <g id="leaf" transform="translate(21.000000, 20.000000)">
                                <mask id="mask-2" fill="white">
                                    <use xlink:href="#path-1"></use>
                                </mask>
                                <g id="Clip-2"></g>
                                <path d="M28.3027443,36.8574003 C27.2843573,36.4466388 26.3263857,35.9192891 25.4441657,35.2938816 C26.4921408,34.6399061 27.3037212,33.635548 27.6993647,32.4339936 C28.2929849,30.6303493 27.8730203,28.6295086 26.6022827,27.2120727 C26.3367647,26.9158921 25.9318265,26.7830895 25.5409853,26.8652418 C23.6753882,27.2560829 22.1479625,28.6199345 21.5538776,30.4241964 C21.5029118,30.578618 21.4624799,30.735356 21.4260758,30.892866 C21.0418957,30.2299341 20.7096109,29.5338015 20.4372768,28.8087921 C20.2952231,28.4304592 20.1698998,28.0444052 20.0609972,27.6560348 C24.8994975,25.2208062 28.2488352,20.4904093 28.8866051,15.0922935 C29.5632578,9.37159085 27.1046602,3.67297055 22.4700232,0.221493363 C22.1504411,-0.0167791663 21.7275332,-0.0669661863 21.3607032,0.0911615322 C16.0489488,2.37428489 12.3287534,7.34712368 11.6522556,13.0679807 C11.5686035,13.7773935 11.5329739,14.4861887 11.5438177,15.19066 C8.74271112,14.8239087 5.84850286,15.4959515 3.47510647,17.153513 C3.14839848,17.3822114 2.96932099,17.7676477 3.00433095,18.1638935 C3.36806274,22.2041802 5.88351282,25.7751797 9.56993759,27.4829282 C11.0967436,28.190488 12.7389585,28.5385543 14.3759065,28.5385543 C15.5498245,28.5385543 16.7206443,28.3581899 17.8449907,28.0041011 C17.9853404,28.5385543 18.1529544,29.069919 18.3478328,29.5886212 C19.9375329,33.8214716 23.2608455,37.2216809 27.4659134,38.9184654 C27.6025452,38.9740572 27.7441341,39 27.884019,39 C28.3245868,39 28.7420729,38.7374833 28.918207,38.3051028 C29.1493347,37.7362136 28.8739024,37.0877973 28.3027443,36.8574003 Z M10.5102493,25.4663365 C7.74368799,24.1844828 5.79583301,21.597921 5.30925654,18.6175842 C7.25168963,17.4588045 9.55119332,17.0636396 11.7434984,17.4720847 C11.9323353,18.6585059 12.2519173,19.8179033 12.6935695,20.928349 C11.6776611,20.4584441 10.7165912,20.0138643 9.80354387,19.5495185 C9.25469305,19.2701698 8.58299755,19.4872866 8.30276296,20.0337847 C8.02330293,20.5809004 8.24048861,21.2504724 8.78933943,21.5298211 C9.74669141,22.0171757 10.7790205,22.4943384 11.7780436,22.9563679 C12.6754449,23.3714531 13.5970124,23.7996642 14.4823306,24.2406923 C14.9555847,24.9167501 15.4807341,25.5603793 16.0574689,26.1618514 C14.2070532,26.5014245 12.2640004,26.278903 10.5102493,25.4663365 Z M18.4621574,20.0007384 C18.2685183,21.5852585 18.0694572,23.2116268 17.8751984,24.8341345 C14.878129,21.8368113 13.3640257,17.5895996 13.8674875,13.3280267 C14.4254781,8.60905699 17.3844393,4.48013225 21.6494579,2.40501479 C25.3140402,5.41144892 27.2292089,10.1128145 26.6713732,14.8317842 C26.1679114,19.0935115 23.7049763,22.8737523 20.0905852,25.0947982 C20.2842244,23.4756877 20.4826658,21.8525623 20.676305,20.2703585 C21.1422782,16.4652559 21.6246721,12.5299758 22.0342576,8.64951545 C22.0990106,8.03846918 21.6548798,7.49135345 21.0418957,7.42742291 C20.4307705,7.36349237 19.8806804,7.80560141 19.8159275,8.41664768 C19.4080459,12.2790407 18.927511,16.2047467 18.4621574,20.0007384 Z M23.9119378,33.6000311 C23.4950714,32.8496965 23.4001108,31.9478744 23.6735293,31.1172406 C23.9471027,30.2872245 24.5594671,29.616417 25.3413046,29.2581589 C25.7575513,30.0084935 25.8531316,30.9103156 25.5797131,31.7409494 C25.3061397,32.5715832 24.6931556,33.241773 23.9119378,33.6000311 Z" id="Fill-1" fill="#D2CBB8" mask="url(#mask-2)"></path>
                            </g>
                        </g>
                    </g>
                </g>
            </g>
        </g>
    </g>
</svg>