<?xml version="1.0" encoding="UTF-8"?>
<svg width="84px" height="84px" viewBox="0 0 84 84" version="1.1" xmlns="http://www.w3.org/2000/svg" xmlns:xlink="http://www.w3.org/1999/xlink">
    <!-- Generator: Sketch 51.1 (57501) - http://www.bohemiancoding.com/sketch -->
    <title>icono 2</title>
    <desc>Created with Sketch.</desc>
    <defs></defs>
    <g id="Screens" stroke="none" stroke-width="1" fill="none" fill-rule="evenodd">
        <g id="Desktop-HD-Quienes-somos" transform="translate(-676.000000, -1345.000000)">
            <g id="Por-qué-elegirnos?" transform="translate(0.000000, 1233.000000)">
                <g id="Por-que-1">
                    <g id="2" transform="translate(661.000000, 114.000000)">
                        <g id="icono-2" transform="translate(17.000000, 0.000000)">
                            <g id="2" stroke="#D2CBB8" stroke-width="3">
                                <g id="E-mail">
                                    <g id="Telefono-icon">
                                        <circle id="Oval" cx="40" cy="40" r="40"></circle>
                                    </g>
                                </g>
                            </g>
                            <g id="warranty" transform="translate(21.000000, 22.000000)" fill="#D2CBB8" fill-rule="nonzero">
                                <path d="M38.8375849,31.083 L31.7637777,18.802875 C32.4950465,17.1478125 32.9069946,15.3245625 32.9069946,13.40625 C32.9069946,6.0133125 26.8935273,0 19.5003994,0 C12.1072715,0 6.09380416,6.0133125 6.09380416,13.40625 C6.09380416,15.3245625 6.50575227,17.1478125 7.2370211,18.8004375 L0.163213943,31.078125 C-0.0829798972,31.507125 -0.0488540184,32.0409375 0.253403765,32.4309375 C0.555661549,32.8209375 1.06023704,32.9964375 1.53556178,32.8648125 L8.69224608,30.9391875 L10.5959826,38.09325 C10.7227359,38.571 11.1249337,38.9244375 11.6124463,38.9878125 C11.6685102,38.9975625 11.7221366,39 11.7733254,39 C12.204774,39 12.6094094,38.770875 12.8287901,38.390625 L19.5003994,26.84175 L26.1720087,38.390625 C26.3913894,38.770875 26.7960248,39 27.2274734,39 C27.2786622,39 27.3347261,38.9975625 27.3883525,38.99025 C27.8758651,38.926875 28.2780629,38.5734375 28.4048162,38.0956875 L30.3085527,30.941625 L37.465237,32.86725 C37.9405618,32.998875 38.4475748,32.823375 38.747395,32.433375 C39.0472153,32.043375 39.0837787,31.5095625 38.8375849,31.083 Z M12.1925862,34.6198125 L10.7324861,29.133 C10.649609,28.821 10.4448537,28.552875 10.164534,28.3895625 C9.88421427,28.2286875 9.54783061,28.18725 9.23826014,28.2676875 L3.74399365,29.7448125 L8.64349482,21.240375 C10.5862323,23.9265 13.4893696,25.871625 16.8556438,26.54925 L12.1925862,34.6198125 Z M8.53136693,13.40625 C8.53136693,7.3588125 13.4528062,2.4375 19.5003994,2.4375 C25.5479926,2.4375 30.4694319,7.3588125 30.4694319,13.40625 C30.4694319,19.4536875 25.5479926,24.375 19.5003994,24.375 C13.4528062,24.375 8.53136693,19.4536875 8.53136693,13.40625 Z M29.7625387,28.270125 C29.4505306,28.18725 29.1165845,28.231125 28.8362648,28.392 C28.5559451,28.552875 28.3511898,28.821 28.2683127,29.1354375 L26.8082126,34.62225 L22.145155,26.5516875 C25.5089916,25.8765 28.4145665,23.9289375 30.357304,21.2428125 L35.2568051,29.74725 L29.7625387,28.270125 Z" id="Shape"></path>
                                <path d="M26.9365761,10.6032211 C26.8040801,10.1995886 26.4765902,9.89373046 26.0666028,9.785928 L22.521712,8.85581837 L20.5767718,5.57160376 C20.1267857,4.80946541 18.8768242,4.80946541 18.4293379,5.57160376 L16.4843978,8.85581837 L12.937007,9.785928 C12.5245197,9.89373046 12.1995297,10.1995886 12.0645339,10.6032211 C11.929538,11.0068536 12.0095356,11.4480916 12.2745274,11.7815271 L14.6519542,14.7648976 L14.3919622,18.6633356 C14.3644631,19.0970525 14.561957,19.5157271 14.9169461,19.7689376 C15.2719351,20.022148 15.731921,20.0697817 16.1294087,19.8993034 L19.5018049,18.4627728 L22.8742011,19.8993034 C23.0316963,19.9669933 23.1991911,19.9995847 23.364186,19.9995847 C23.6191782,19.9995847 23.8741703,19.9218667 24.0891637,19.7689376 C24.4441528,19.5157271 24.6416467,19.0970525 24.6116476,18.6633356 L24.3516556,14.7648976 L26.7265825,11.7815271 C26.9915744,11.4505986 27.069072,11.0068536 26.9365761,10.6032211 Z M22.0967251,13.5815776 C21.9017311,13.8272669 21.8042341,14.1356321 21.8267334,14.4465043 L21.9842285,16.7955952 L19.9917898,15.9457107 C19.8342947,15.8780207 19.6667999,15.8454293 19.5018049,15.8454293 C19.33681,15.8454293 19.1693152,15.8780207 19.01182,15.9457107 L17.0218813,16.7955952 L17.1768765,14.4465043 C17.1993758,14.1356321 17.1018788,13.8272669 16.9068848,13.5815776 L15.4294303,11.7238653 L17.6118631,11.1497545 C17.9293533,11.0670224 18.2018449,10.8589386 18.3693398,10.5781508 L19.5018049,8.66528378 L20.6342701,10.5781508 C20.8017649,10.8589386 21.0742565,11.0670224 21.3917468,11.1497545 L23.5741796,11.7238653 L22.0967251,13.5815776 Z" id="Shape"></path>
                            </g>
                        </g>
                    </g>
                </g>
            </g>
        </g>
    </g>
</svg>